<?xml version="1.0" encoding="UTF-8" standalone="no"?>
<svg
   xmlns:dc="http://purl.org/dc/elements/1.1/"
   xmlns:cc="http://creativecommons.org/ns#"
   xmlns:rdf="http://www.w3.org/1999/02/22-rdf-syntax-ns#"
   xmlns:svg="http://www.w3.org/2000/svg"
   xmlns="http://www.w3.org/2000/svg"
   xmlns:sodipodi="http://sodipodi.sourceforge.net/DTD/sodipodi-0.dtd"
   xmlns:inkscape="http://www.inkscape.org/namespaces/inkscape"
   version="1.1"
   x="0px"
   y="0px"
   viewBox="0 0 100 125"
   enable-background="new 0 0 100 100"
   xml:space="preserve"
   id="svg10"
   sodipodi:docname="socialnetwork.svg"
   inkscape:version="0.92.3 (2405546, 2018-03-11)"><metadata
     id="metadata16"><rdf:RDF><cc:Work
         rdf:about=""><dc:format>image/svg+xml</dc:format><dc:type
           rdf:resource="http://purl.org/dc/dcmitype/StillImage" /></cc:Work></rdf:RDF></metadata><defs
     id="defs14" /><sodipodi:namedview
     pagecolor="#ffffff"
     bordercolor="#666666"
     borderopacity="1"
     objecttolerance="10"
     gridtolerance="10"
     guidetolerance="10"
     inkscape:pageopacity="0"
     inkscape:pageshadow="2"
     inkscape:window-width="640"
     inkscape:window-height="480"
     id="namedview12"
     showgrid="false"
     inkscape:zoom="1.888"
     inkscape:cx="50"
     inkscape:cy="62.5"
     inkscape:window-x="0"
     inkscape:window-y="0"
     inkscape:window-maximized="0"
     inkscape:current-layer="svg10" /><g
     id="g4"><path
       d="M64,55.5c1.4-0.9,2.6-2,3.8-3.1c4.8-4.8,7.4-11.1,7.4-17.8c0-6.7-2.6-13-7.4-17.8C63.1,12,56.7,9.4,50,9.4   c-6.7,0-13,2.6-17.8,7.4c-4.8,4.8-7.4,11.1-7.4,17.8c0,6.7,2.6,13,7.4,17.8c1.2,1.2,2.5,2.2,3.8,3.1v-6.4c-1.3-1.3-2.4-2.7-3.4-4.3   h3.8c0.9-3.4,3.1-6.3,6.2-8c0-0.7-0.1-1.3-0.1-2c0-1.9,0.1-3.7,0.4-5.6H57c0.2,1.7,0.3,3.4,0.3,5c0,0.8,0,1.6-0.1,2.4   c3.1,1.7,5.4,4.6,6.3,8.1h3.8c-0.9,1.6-2.1,3-3.4,4.3V55.5z M37.8,39.8h-7.3c-0.5-1.7-0.7-3.5-0.7-5.3c0-1.8,0.2-3.6,0.7-5.3h7.4   c-0.2,1.8-0.4,3.7-0.4,5.6C37.5,36.5,37.6,38.1,37.8,39.8z M38.9,24.2h-6.2c2.2-3.6,5.4-6.5,9.3-8.2C40.6,18.7,39.6,21.4,38.9,24.2   z M44.1,24.2c1-3.5,2.6-6.8,4.6-9.8c1-0.1,1.9-0.1,2.9,0c1.9,3,3.4,6.3,4.4,9.8H44.1z M58.2,16.1c3.8,1.7,7,4.5,9.1,8.1h-6.2   C60.5,21.4,59.5,18.7,58.2,16.1z M62,39.8c0.2-1.8,0.4-3.7,0.4-5.5c0-1.7-0.1-3.4-0.3-5h7.4c0.5,1.7,0.7,3.5,0.7,5.3   c0,1.8-0.2,3.6-0.7,5.3H62z M97.2,82.4c0.9,0.7,1.4,1.8,1.4,2.9v5.3H79.7h-1.8v-6.7c0-2.7-1.2-5.2-3.2-6.8c-0.7-0.5-1.3-1.1-2-1.6   c0.2-0.1,0.4-0.2,0.5-0.2c0.1-0.1,0.2-0.2,0.2-0.3v-7.5c-0.9-0.6-1.6-1.7-1.6-2.9v-7.8c0-3.9,3.1-7,7-7h0.8h0.8c3.9,0,7,3.1,7,7   v7.8c0,1.2-0.6,2.3-1.6,2.9V75c0,0.1,0.1,0.3,0.2,0.3C87.2,75.8,92.4,78.4,97.2,82.4z M73.8,83.9v6.7H50H26.2v-6.7   c0-1.4,0.6-2.8,1.7-3.7c6.1-5,12.6-8.3,13.9-8.9c0.2-0.1,0.2-0.2,0.2-0.4v-9.4c-1.2-0.8-2-2.1-2-3.7V48c0-4.9,3.9-8.8,8.8-8.8H50   h1.1c4.9,0,8.8,3.9,8.8,8.8v9.8c0,1.5-0.8,2.9-2,3.7v9.4c0,0.2,0.1,0.3,0.2,0.4c1.3,0.7,7.9,4,13.9,8.9   C73.2,81.2,73.8,82.5,73.8,83.9z M27.3,75.5c-0.7,0.5-1.3,1-2,1.6c-2.1,1.7-3.2,4.2-3.2,6.8v6.7h-1.8H1.4v-5.3   c0-1.1,0.5-2.2,1.4-2.9c4.8-4,10-6.6,11.1-7.1C14,75.2,14,75.1,14,75v-7.5c-0.9-0.6-1.6-1.7-1.6-2.9v-7.8c0-3.9,3.1-7,7-7h0.8h0.8   c3.9,0,7,3.1,7,7v7.8c0,1.2-0.6,2.3-1.6,2.9V75c0,0.1,0.1,0.3,0.2,0.3C26.9,75.3,27.1,75.4,27.3,75.5z"
       id="path2" /></g></svg>